{
  "count": 1350,
  "next": "https://pokeapi.co/api/v2/pokemon?offset=5&limit=5",
  "previous": null,
  "results": [
      { "name": "bulbasaur", "url": "https://pokeapi.co/api/v2/pokemon/1/" },
      { "name": "ivysaur", "url": "https://pokeapi.co/api/v2/pokemon/2/" }
    ]
}
